^C:\USERS\НИКОЛАЙ\DOCUMENTS\VISUAL STUDIO 2012\PROJECTS\CACHEPROJECT\CACHEPROJECT\DEBUG\CACHE.OBJ|C:\USERS\НИКОЛАЙ\DOCUMENTS\VISUAL STUDIO 2012\PROJECTS\CACHEPROJECT\CACHEPROJECT\DEBUG\CACHEPROJECT.OBJ|C:\USERS\НИКОЛАЙ\DOCUMENTS\VISUAL STUDIO 2012\PROJECTS\CACHEPROJECT\CACHEPROJECT\DEBUG\GENERALMEMORY.OBJ|C:\USERS\НИКОЛАЙ\DOCUMENTS\VISUAL STUDIO 2012\PROJECTS\CACHEPROJECT\CACHEPROJECT\DEBUG\MEMORYCONTROLLER.OBJ|C:\USERS\НИКОЛАЙ\DOCUMENTS\VISUAL STUDIO 2012\PROJECTS\CACHEPROJECT\CACHEPROJECT\DEBUG\MEMORYEXCEPTION.OBJ|C:\USERS\НИКОЛАЙ\DOCUMENTS\VISUAL STUDIO 2012\PROJECTS\CACHEPROJECT\CACHEPROJECT\DEBUG\PROGRAMMODEL.OBJ|C:\USERS\НИКОЛАЙ\DOCUMENTS\VISUAL STUDIO 2012\PROJECTS\CACHEPROJECT\CACHEPROJECT\DEBUG\STDAFX.OBJ
C:\PROGRAM FILES (X86)\WINDOWS KITS\8.0\LIB\WIN8\UM\X86\KERNEL32.LIB
C:\PROGRAM FILES (X86)\WINDOWS KITS\8.0\LIB\WIN8\UM\X86\USER32.LIB
C:\PROGRAM FILES (X86)\WINDOWS KITS\8.0\LIB\WIN8\UM\X86\GDI32.LIB
C:\PROGRAM FILES (X86)\WINDOWS KITS\8.0\LIB\WIN8\UM\X86\WINSPOOL.LIB
C:\PROGRAM FILES (X86)\WINDOWS KITS\8.0\LIB\WIN8\UM\X86\COMDLG32.LIB
C:\PROGRAM FILES (X86)\WINDOWS KITS\8.0\LIB\WIN8\UM\X86\ADVAPI32.LIB
C:\PROGRAM FILES (X86)\WINDOWS KITS\8.0\LIB\WIN8\UM\X86\SHELL32.LIB
C:\PROGRAM FILES (X86)\WINDOWS KITS\8.0\LIB\WIN8\UM\X86\OLE32.LIB
C:\PROGRAM FILES (X86)\WINDOWS KITS\8.0\LIB\WIN8\UM\X86\OLEAUT32.LIB
C:\PROGRAM FILES (X86)\WINDOWS KITS\8.0\LIB\WIN8\UM\X86\UUID.LIB
C:\PROGRAM FILES (X86)\WINDOWS KITS\8.0\LIB\WIN8\UM\X86\ODBC32.LIB
C:\PROGRAM FILES (X86)\WINDOWS KITS\8.0\LIB\WIN8\UM\X86\ODBCCP32.LIB
C:\USERS\Николай\DOCUMENTS\VISUAL STUDIO 2012\PROJECTS\CACHEPROJECT\CACHEPROJECT\DEBUG\CACHE.OBJ
C:\USERS\Николай\DOCUMENTS\VISUAL STUDIO 2012\PROJECTS\CACHEPROJECT\CACHEPROJECT\DEBUG\MEMORYCONTROLLER.OBJ
C:\USERS\Николай\DOCUMENTS\VISUAL STUDIO 2012\PROJECTS\CACHEPROJECT\CACHEPROJECT\DEBUG\CACHEPROJECT.OBJ
C:\USERS\Николай\DOCUMENTS\VISUAL STUDIO 2012\PROJECTS\CACHEPROJECT\CACHEPROJECT\DEBUG\GENERALMEMORY.OBJ
C:\USERS\Николай\DOCUMENTS\VISUAL STUDIO 2012\PROJECTS\CACHEPROJECT\CACHEPROJECT\DEBUG\MEMORYEXCEPTION.OBJ
C:\USERS\Николай\DOCUMENTS\VISUAL STUDIO 2012\PROJECTS\CACHEPROJECT\CACHEPROJECT\DEBUG\PROGRAMMODEL.OBJ
C:\USERS\Николай\DOCUMENTS\VISUAL STUDIO 2012\PROJECTS\CACHEPROJECT\CACHEPROJECT\DEBUG\STDAFX.OBJ
C:\WINDOWS\SYSTEM32\TZRES.DLL
C:\WINDOWS\GLOBALIZATION\SORTING\SORTDEFAULT.NLS
D:\PROGRAM FILES (X86)\MICROSOFT VISUAL STUDIO 11.0\VC\LIB\MSVCPRTD.LIB
D:\PROGRAM FILES (X86)\MICROSOFT VISUAL STUDIO 11.0\VC\LIB\MSVCRTD.LIB
D:\PROGRAM FILES (X86)\MICROSOFT VISUAL STUDIO 11.0\VC\LIB\OLDNAMES.LIB
